EESchema Schematic File Version 4
EELAYER 30 0
EELAYER END
$Descr A4 11693 8268
encoding utf-8
Sheet 1 1
Title "oscillator test"
Date "2020-11-15"
Rev "1"
Comp "© 2020 onitake"
Comment1 ""
Comment2 ""
Comment3 ""
Comment4 ""
$EndDescr
$Comp
L 74xx:74HC14 U1
U 1 1 5FB16300
P 2150 2250
F 0 "U1" H 2150 2567 50  0000 C CNN
F 1 "74AC14" H 2150 2476 50  0000 C CNN
F 2 "Package_SO:SOIC-14_3.9x8.7mm_P1.27mm" H 2150 2250 50  0001 C CNN
F 3 "http://www.ti.com/lit/gpn/sn74HC14" H 2150 2250 50  0001 C CNN
	1    2150 2250
	1    0    0    -1  
$EndComp
$Comp
L 74xx:74HC14 U1
U 2 1 5FB18426
P 3050 2250
F 0 "U1" H 3050 2567 50  0000 C CNN
F 1 "74AC14" H 3050 2476 50  0000 C CNN
F 2 "Package_SO:SOIC-14_3.9x8.7mm_P1.27mm" H 3050 2250 50  0001 C CNN
F 3 "http://www.ti.com/lit/gpn/sn74HC14" H 3050 2250 50  0001 C CNN
	2    3050 2250
	1    0    0    -1  
$EndComp
$Comp
L Device:Crystal Y1
U 1 1 5FB1984E
P 2600 2250
F 0 "Y1" H 2600 2518 50  0000 C CNN
F 1 "14.32MHz" H 2600 2427 50  0000 C CNN
F 2 "Crystal:Crystal_SMD_HC49-SD" H 2600 2250 50  0001 C CNN
F 3 "~" H 2600 2250 50  0001 C CNN
	1    2600 2250
	1    0    0    -1  
$EndComp
$Comp
L Device:R R3
U 1 1 5FB1A8B0
P 2900 1800
F 0 "R3" V 2693 1800 50  0000 C CNN
F 1 "1k" V 2784 1800 50  0000 C CNN
F 2 "Resistor_SMD:R_0805_2012Metric_Pad1.20x1.40mm_HandSolder" V 2830 1800 50  0001 C CNN
F 3 "~" H 2900 1800 50  0001 C CNN
	1    2900 1800
	0    1    1    0   
$EndComp
$Comp
L Device:R R2
U 1 1 5FB1B467
P 2300 1800
F 0 "R2" V 2093 1800 50  0000 C CNN
F 1 "1k" V 2184 1800 50  0000 C CNN
F 2 "Resistor_SMD:R_0805_2012Metric_Pad1.20x1.40mm_HandSolder" V 2230 1800 50  0001 C CNN
F 3 "~" H 2300 1800 50  0001 C CNN
	1    2300 1800
	0    1    1    0   
$EndComp
Wire Wire Line
	2750 2250 2750 1800
Connection ~ 2750 2250
Wire Wire Line
	2450 1800 2450 2250
Connection ~ 2450 2250
$Comp
L Device:C C2
U 1 1 5FB1C538
P 2600 1500
F 0 "C2" V 2348 1500 50  0000 C CNN
F 1 "100p" V 2439 1500 50  0000 C CNN
F 2 "Capacitor_SMD:C_0805_2012Metric_Pad1.18x1.45mm_HandSolder" H 2638 1350 50  0001 C CNN
F 3 "~" H 2600 1500 50  0001 C CNN
	1    2600 1500
	0    1    1    0   
$EndComp
Wire Wire Line
	2750 1500 3350 1500
Wire Wire Line
	3350 1500 3350 1800
Wire Wire Line
	3050 1800 3350 1800
Connection ~ 3350 1800
Wire Wire Line
	3350 1800 3350 2250
Wire Wire Line
	1850 2250 1850 1800
Wire Wire Line
	1850 1500 2450 1500
Wire Wire Line
	2150 1800 1850 1800
Connection ~ 1850 1800
Wire Wire Line
	1850 1800 1850 1500
$Comp
L Device:R R1
U 1 1 5FB1D155
P 1850 2550
F 0 "R1" H 1920 2596 50  0000 L CNN
F 1 "1k" H 1920 2505 50  0000 L CNN
F 2 "Resistor_SMD:R_0805_2012Metric_Pad1.20x1.40mm_HandSolder" V 1780 2550 50  0001 C CNN
F 3 "~" H 1850 2550 50  0001 C CNN
	1    1850 2550
	1    0    0    -1  
$EndComp
Wire Wire Line
	1850 2400 1850 2250
Connection ~ 1850 2250
$Comp
L Device:C C1
U 1 1 5FB1DE19
P 2450 2550
F 0 "C1" H 2335 2504 50  0000 R CNN
F 1 "22p" H 2335 2595 50  0000 R CNN
F 2 "Capacitor_SMD:C_0805_2012Metric_Pad1.18x1.45mm_HandSolder" H 2488 2400 50  0001 C CNN
F 3 "~" H 2450 2550 50  0001 C CNN
	1    2450 2550
	-1   0    0    1   
$EndComp
$Comp
L Device:C C3
U 1 1 5FB1E37D
P 2750 2550
F 0 "C3" H 2635 2504 50  0000 R CNN
F 1 "22p" H 2635 2595 50  0000 R CNN
F 2 "Capacitor_SMD:C_0805_2012Metric_Pad1.18x1.45mm_HandSolder" H 2788 2400 50  0001 C CNN
F 3 "~" H 2750 2550 50  0001 C CNN
	1    2750 2550
	-1   0    0    1   
$EndComp
$Comp
L power:GND #PWR0101
U 1 1 5FB1E84C
P 1850 2700
F 0 "#PWR0101" H 1850 2450 50  0001 C CNN
F 1 "GND" H 1855 2527 50  0000 C CNN
F 2 "" H 1850 2700 50  0001 C CNN
F 3 "" H 1850 2700 50  0001 C CNN
	1    1850 2700
	1    0    0    -1  
$EndComp
$Comp
L power:GND #PWR0102
U 1 1 5FB1EBB0
P 2450 2700
F 0 "#PWR0102" H 2450 2450 50  0001 C CNN
F 1 "GND" H 2455 2527 50  0000 C CNN
F 2 "" H 2450 2700 50  0001 C CNN
F 3 "" H 2450 2700 50  0001 C CNN
	1    2450 2700
	1    0    0    -1  
$EndComp
$Comp
L power:GND #PWR0103
U 1 1 5FB1EE38
P 2750 2700
F 0 "#PWR0103" H 2750 2450 50  0001 C CNN
F 1 "GND" H 2755 2527 50  0000 C CNN
F 2 "" H 2750 2700 50  0001 C CNN
F 3 "" H 2750 2700 50  0001 C CNN
	1    2750 2700
	1    0    0    -1  
$EndComp
Wire Wire Line
	2450 2250 2450 2400
Wire Wire Line
	2750 2400 2750 2250
$Comp
L 74xx:74HC14 U1
U 3 1 5FB1F3B5
P 3650 2250
F 0 "U1" H 3650 2567 50  0000 C CNN
F 1 "74AC14" H 3650 2476 50  0000 C CNN
F 2 "Package_SO:SOIC-14_3.9x8.7mm_P1.27mm" H 3650 2250 50  0001 C CNN
F 3 "http://www.ti.com/lit/gpn/sn74HC14" H 3650 2250 50  0001 C CNN
	3    3650 2250
	1    0    0    -1  
$EndComp
Connection ~ 3350 2250
$Comp
L Connector_Generic:Conn_01x02 J2
U 1 1 5FB20733
P 4150 2250
F 0 "J2" H 4230 2242 50  0000 L CNN
F 1 "3G" H 4230 2151 50  0000 L CNN
F 2 "Connector_PinHeader_2.54mm:PinHeader_1x02_P2.54mm_Vertical" H 4150 2250 50  0001 C CNN
F 3 "~" H 4150 2250 50  0001 C CNN
	1    4150 2250
	1    0    0    -1  
$EndComp
$Comp
L power:GND #PWR0104
U 1 1 5FB20B73
P 3950 2350
F 0 "#PWR0104" H 3950 2100 50  0001 C CNN
F 1 "GND" H 3955 2177 50  0000 C CNN
F 2 "" H 3950 2350 50  0001 C CNN
F 3 "" H 3950 2350 50  0001 C CNN
	1    3950 2350
	1    0    0    -1  
$EndComp
$Comp
L 74xx:74HC14 U1
U 7 1 5FB212E0
P 2400 6500
F 0 "U1" H 2630 6546 50  0000 L CNN
F 1 "74AC14" H 2630 6455 50  0000 L CNN
F 2 "Package_SO:SOIC-14_3.9x8.7mm_P1.27mm" H 2400 6500 50  0001 C CNN
F 3 "http://www.ti.com/lit/gpn/sn74HC14" H 2400 6500 50  0001 C CNN
	7    2400 6500
	1    0    0    -1  
$EndComp
$Comp
L Device:C C4
U 1 1 5FB21A75
P 1900 6500
F 0 "C4" H 2015 6546 50  0000 L CNN
F 1 "100n" H 2015 6455 50  0000 L CNN
F 2 "Capacitor_SMD:C_0805_2012Metric_Pad1.18x1.45mm_HandSolder" H 1938 6350 50  0001 C CNN
F 3 "~" H 1900 6500 50  0001 C CNN
	1    1900 6500
	1    0    0    -1  
$EndComp
Wire Wire Line
	2400 6000 1900 6000
Wire Wire Line
	1900 6000 1900 6350
Wire Wire Line
	1900 6650 1900 7000
Wire Wire Line
	1900 7000 2400 7000
$Comp
L power:GND #PWR0105
U 1 1 5FB22D3D
P 1900 7000
F 0 "#PWR0105" H 1900 6750 50  0001 C CNN
F 1 "GND" H 1905 6827 50  0000 C CNN
F 2 "" H 1900 7000 50  0001 C CNN
F 3 "" H 1900 7000 50  0001 C CNN
	1    1900 7000
	1    0    0    -1  
$EndComp
Connection ~ 1900 7000
$Comp
L power:VCC #PWR0106
U 1 1 5FB233C8
P 1900 6000
F 0 "#PWR0106" H 1900 5850 50  0001 C CNN
F 1 "VCC" H 1915 6173 50  0000 C CNN
F 2 "" H 1900 6000 50  0001 C CNN
F 3 "" H 1900 6000 50  0001 C CNN
	1    1900 6000
	1    0    0    -1  
$EndComp
Connection ~ 1900 6000
$Comp
L Device:Crystal Y2
U 1 1 5FB23CD5
P 5250 2200
F 0 "Y2" H 5250 2468 50  0000 C CNN
F 1 "14.32MHz" H 5250 2377 50  0000 C CNN
F 2 "Crystal:Crystal_SMD_HC49-SD" H 5250 2200 50  0001 C CNN
F 3 "~" H 5250 2200 50  0001 C CNN
	1    5250 2200
	1    0    0    -1  
$EndComp
$Comp
L Device:C C5
U 1 1 5FB23D07
P 4950 2500
F 0 "C5" H 4835 2454 50  0000 R CNN
F 1 "22p" H 4835 2545 50  0000 R CNN
F 2 "Capacitor_SMD:C_0805_2012Metric_Pad1.18x1.45mm_HandSolder" H 4988 2350 50  0001 C CNN
F 3 "~" H 4950 2500 50  0001 C CNN
	1    4950 2500
	-1   0    0    1   
$EndComp
$Comp
L Device:C C7
U 1 1 5FB23D11
P 5550 2500
F 0 "C7" H 5435 2454 50  0000 R CNN
F 1 "22p" H 5435 2545 50  0000 R CNN
F 2 "Capacitor_SMD:C_0805_2012Metric_Pad1.18x1.45mm_HandSolder" H 5588 2350 50  0001 C CNN
F 3 "~" H 5550 2500 50  0001 C CNN
	1    5550 2500
	-1   0    0    1   
$EndComp
$Comp
L power:GND #PWR0107
U 1 1 5FB23D1B
P 4950 2650
F 0 "#PWR0107" H 4950 2400 50  0001 C CNN
F 1 "GND" H 4955 2477 50  0000 C CNN
F 2 "" H 4950 2650 50  0001 C CNN
F 3 "" H 4950 2650 50  0001 C CNN
	1    4950 2650
	1    0    0    -1  
$EndComp
$Comp
L power:GND #PWR0108
U 1 1 5FB23D25
P 5550 2650
F 0 "#PWR0108" H 5550 2400 50  0001 C CNN
F 1 "GND" H 5555 2477 50  0000 C CNN
F 2 "" H 5550 2650 50  0001 C CNN
F 3 "" H 5550 2650 50  0001 C CNN
	1    5550 2650
	1    0    0    -1  
$EndComp
$Comp
L 74xx:74HC14 U1
U 5 1 5FB23D31
P 5850 2200
F 0 "U1" H 5850 2517 50  0000 C CNN
F 1 "74AC14" H 5850 2426 50  0000 C CNN
F 2 "Package_SO:SOIC-14_3.9x8.7mm_P1.27mm" H 5850 2200 50  0001 C CNN
F 3 "http://www.ti.com/lit/gpn/sn74HC14" H 5850 2200 50  0001 C CNN
	5    5850 2200
	1    0    0    -1  
$EndComp
$Comp
L Connector_Generic:Conn_01x02 J4
U 1 1 5FB23D3C
P 6350 2200
F 0 "J4" H 6430 2192 50  0000 L CNN
F 1 "2G" H 6430 2101 50  0000 L CNN
F 2 "Connector_PinHeader_2.54mm:PinHeader_1x02_P2.54mm_Vertical" H 6350 2200 50  0001 C CNN
F 3 "~" H 6350 2200 50  0001 C CNN
	1    6350 2200
	1    0    0    -1  
$EndComp
$Comp
L power:GND #PWR0109
U 1 1 5FB23D46
P 6150 2300
F 0 "#PWR0109" H 6150 2050 50  0001 C CNN
F 1 "GND" H 6155 2127 50  0000 C CNN
F 2 "" H 6150 2300 50  0001 C CNN
F 3 "" H 6150 2300 50  0001 C CNN
	1    6150 2300
	1    0    0    -1  
$EndComp
Wire Wire Line
	5400 2200 5550 2200
Wire Wire Line
	5550 2200 5550 2350
Connection ~ 5550 2200
Wire Wire Line
	4950 2350 4950 2200
Wire Wire Line
	5100 2200 4950 2200
Connection ~ 4950 2200
Wire Wire Line
	4950 2200 4950 1750
$Comp
L 74xx:74HC14 U1
U 4 1 5FB23CCB
P 5250 1750
F 0 "U1" H 5250 2067 50  0000 C CNN
F 1 "74AC14" H 5250 1976 50  0000 C CNN
F 2 "Package_SO:SOIC-14_3.9x8.7mm_P1.27mm" H 5250 1750 50  0001 C CNN
F 3 "http://www.ti.com/lit/gpn/sn74HC14" H 5250 1750 50  0001 C CNN
	4    5250 1750
	1    0    0    -1  
$EndComp
$Comp
L Device:R R6
U 1 1 5FB31135
P 5550 1900
F 0 "R6" H 5480 1854 50  0000 R CNN
F 1 "1k" H 5480 1945 50  0000 R CNN
F 2 "Resistor_SMD:R_0805_2012Metric_Pad1.20x1.40mm_HandSolder" V 5480 1900 50  0001 C CNN
F 3 "~" H 5550 1900 50  0001 C CNN
	1    5550 1900
	-1   0    0    1   
$EndComp
Wire Wire Line
	5550 2050 5550 2200
$Comp
L Device:R R4
U 1 1 5FB31CB5
P 5250 1300
F 0 "R4" V 5457 1300 50  0000 C CNN
F 1 "1k" V 5366 1300 50  0000 C CNN
F 2 "Resistor_SMD:R_0805_2012Metric_Pad1.20x1.40mm_HandSolder" V 5180 1300 50  0001 C CNN
F 3 "~" H 5250 1300 50  0001 C CNN
	1    5250 1300
	0    -1   -1   0   
$EndComp
Wire Wire Line
	5100 1300 4950 1300
Wire Wire Line
	4950 1300 4950 1750
Connection ~ 4950 1750
Wire Wire Line
	5400 1300 5550 1300
Wire Wire Line
	5550 1300 5550 1750
Connection ~ 5550 1750
$Comp
L Device:C C6
U 1 1 5FB33840
P 7150 2450
F 0 "C6" H 7035 2404 50  0000 R CNN
F 1 "22p" H 7035 2495 50  0000 R CNN
F 2 "Capacitor_SMD:C_0805_2012Metric_Pad1.18x1.45mm_HandSolder" H 7188 2300 50  0001 C CNN
F 3 "~" H 7150 2450 50  0001 C CNN
	1    7150 2450
	-1   0    0    1   
$EndComp
$Comp
L 74xx:74HC14 U1
U 6 1 5FB33A2F
P 7450 2200
F 0 "U1" H 7450 2517 50  0000 C CNN
F 1 "74AC14" H 7450 2426 50  0000 C CNN
F 2 "Package_SO:SOIC-14_3.9x8.7mm_P1.27mm" H 7450 2200 50  0001 C CNN
F 3 "http://www.ti.com/lit/gpn/sn74HC14" H 7450 2200 50  0001 C CNN
	6    7450 2200
	1    0    0    -1  
$EndComp
Wire Wire Line
	7150 2300 7150 2200
$Comp
L Device:R R5
U 1 1 5FB352F0
P 7450 1750
F 0 "R5" V 7657 1750 50  0000 C CNN
F 1 "3k9" V 7566 1750 50  0000 C CNN
F 2 "Resistor_SMD:R_0805_2012Metric_Pad1.20x1.40mm_HandSolder" V 7380 1750 50  0001 C CNN
F 3 "~" H 7450 1750 50  0001 C CNN
	1    7450 1750
	0    -1   -1   0   
$EndComp
Wire Wire Line
	7300 1750 7150 1750
Wire Wire Line
	7150 1750 7150 2200
Connection ~ 7150 2200
Wire Wire Line
	7600 1750 7750 1750
Wire Wire Line
	7750 1750 7750 2200
$Comp
L power:GND #PWR0110
U 1 1 5FB36743
P 7150 2600
F 0 "#PWR0110" H 7150 2350 50  0001 C CNN
F 1 "GND" H 7155 2427 50  0000 C CNN
F 2 "" H 7150 2600 50  0001 C CNN
F 3 "" H 7150 2600 50  0001 C CNN
	1    7150 2600
	1    0    0    -1  
$EndComp
$Comp
L Connector_Generic:Conn_01x02 J3
U 1 1 5FB369E0
P 7950 2200
F 0 "J3" H 8030 2192 50  0000 L CNN
F 1 "1G" H 8030 2101 50  0000 L CNN
F 2 "Connector_PinHeader_2.54mm:PinHeader_1x02_P2.54mm_Vertical" H 7950 2200 50  0001 C CNN
F 3 "~" H 7950 2200 50  0001 C CNN
	1    7950 2200
	1    0    0    -1  
$EndComp
$Comp
L power:GND #PWR0111
U 1 1 5FB369EA
P 7750 2300
F 0 "#PWR0111" H 7750 2050 50  0001 C CNN
F 1 "GND" H 7755 2127 50  0000 C CNN
F 2 "" H 7750 2300 50  0001 C CNN
F 3 "" H 7750 2300 50  0001 C CNN
	1    7750 2300
	1    0    0    -1  
$EndComp
Connection ~ 7750 2200
$Comp
L Connector_Generic:Conn_01x02 J1
U 1 1 5FB38BF2
P 1350 6450
F 0 "J1" H 1268 6667 50  0000 C CNN
F 1 "5V" H 1268 6576 50  0000 C CNN
F 2 "Connector_PinHeader_2.54mm:PinHeader_1x02_P2.54mm_Vertical" H 1350 6450 50  0001 C CNN
F 3 "~" H 1350 6450 50  0001 C CNN
	1    1350 6450
	-1   0    0    -1  
$EndComp
Wire Wire Line
	1550 6450 1550 6000
Wire Wire Line
	1550 6000 1900 6000
Wire Wire Line
	1550 6550 1550 7000
Wire Wire Line
	1550 7000 1900 7000
$Comp
L 74xx:74LS132 U2
U 1 1 5FE82D7C
P 2850 4400
F 0 "U2" H 2850 4725 50  0000 C CNN
F 1 "74LS132" H 2850 4634 50  0000 C CNN
F 2 "Package_SO:SOIC-14_3.9x8.7mm_P1.27mm" H 2850 4400 50  0001 C CNN
F 3 "http://www.ti.com/lit/gpn/sn74LS132" H 2850 4400 50  0001 C CNN
	1    2850 4400
	1    0    0    -1  
$EndComp
$Comp
L 74xx:74LS132 U2
U 2 1 5FE86804
P 1950 4400
F 0 "U2" H 1950 4725 50  0000 C CNN
F 1 "74LS132" H 1950 4634 50  0000 C CNN
F 2 "Package_SO:SOIC-14_3.9x8.7mm_P1.27mm" H 1950 4400 50  0001 C CNN
F 3 "http://www.ti.com/lit/gpn/sn74LS132" H 1950 4400 50  0001 C CNN
	2    1950 4400
	1    0    0    -1  
$EndComp
$Comp
L Device:Crystal Y3
U 1 1 5FE888B8
P 2400 4400
F 0 "Y3" H 2400 4668 50  0000 C CNN
F 1 "14.32MHz" H 2400 4577 50  0000 C CNN
F 2 "Crystal:Crystal_SMD_HC49-SD" H 2400 4400 50  0001 C CNN
F 3 "~" H 2400 4400 50  0001 C CNN
	1    2400 4400
	1    0    0    -1  
$EndComp
Wire Wire Line
	2550 4300 2550 4400
Connection ~ 2550 4400
Wire Wire Line
	2550 4400 2550 4500
$Comp
L Device:R R7
U 1 1 5FE899E0
P 1650 4650
F 0 "R7" H 1720 4696 50  0000 L CNN
F 1 "1k" H 1720 4605 50  0000 L CNN
F 2 "Resistor_SMD:R_0805_2012Metric_Pad1.20x1.40mm_HandSolder" V 1580 4650 50  0001 C CNN
F 3 "~" H 1650 4650 50  0001 C CNN
	1    1650 4650
	1    0    0    -1  
$EndComp
$Comp
L power:GND #PWR0112
U 1 1 5FE89E60
P 1650 4800
F 0 "#PWR0112" H 1650 4550 50  0001 C CNN
F 1 "GND" H 1655 4627 50  0000 C CNN
F 2 "" H 1650 4800 50  0001 C CNN
F 3 "" H 1650 4800 50  0001 C CNN
	1    1650 4800
	1    0    0    -1  
$EndComp
$Comp
L Device:C C8
U 1 1 5FE8A126
P 2250 4650
F 0 "C8" H 2135 4604 50  0000 R CNN
F 1 "22p" H 2135 4695 50  0000 R CNN
F 2 "Capacitor_SMD:C_0805_2012Metric_Pad1.18x1.45mm_HandSolder" H 2288 4500 50  0001 C CNN
F 3 "~" H 2250 4650 50  0001 C CNN
	1    2250 4650
	-1   0    0    1   
$EndComp
$Comp
L Device:C C10
U 1 1 5FE8A13E
P 2550 4650
F 0 "C10" H 2435 4604 50  0000 R CNN
F 1 "22p" H 2435 4695 50  0000 R CNN
F 2 "Capacitor_SMD:C_0805_2012Metric_Pad1.18x1.45mm_HandSolder" H 2588 4500 50  0001 C CNN
F 3 "~" H 2550 4650 50  0001 C CNN
	1    2550 4650
	-1   0    0    1   
$EndComp
$Comp
L power:GND #PWR0113
U 1 1 5FE8A148
P 2250 4800
F 0 "#PWR0113" H 2250 4550 50  0001 C CNN
F 1 "GND" H 2255 4627 50  0000 C CNN
F 2 "" H 2250 4800 50  0001 C CNN
F 3 "" H 2250 4800 50  0001 C CNN
	1    2250 4800
	1    0    0    -1  
$EndComp
$Comp
L power:GND #PWR0114
U 1 1 5FE8A152
P 2550 4800
F 0 "#PWR0114" H 2550 4550 50  0001 C CNN
F 1 "GND" H 2555 4627 50  0000 C CNN
F 2 "" H 2550 4800 50  0001 C CNN
F 3 "" H 2550 4800 50  0001 C CNN
	1    2550 4800
	1    0    0    -1  
$EndComp
Connection ~ 2550 4500
Wire Wire Line
	2250 4500 2250 4400
Connection ~ 2250 4400
$Comp
L Device:R R8
U 1 1 5FE8CAB2
P 2100 3950
F 0 "R8" V 1893 3950 50  0000 C CNN
F 1 "1k" V 1984 3950 50  0000 C CNN
F 2 "Resistor_SMD:R_0805_2012Metric_Pad1.20x1.40mm_HandSolder" V 2030 3950 50  0001 C CNN
F 3 "~" H 2100 3950 50  0001 C CNN
	1    2100 3950
	0    1    1    0   
$EndComp
$Comp
L Device:R R9
U 1 1 5FE8CE9D
P 2700 3950
F 0 "R9" V 2493 3950 50  0000 C CNN
F 1 "1k" V 2584 3950 50  0000 C CNN
F 2 "Resistor_SMD:R_0805_2012Metric_Pad1.20x1.40mm_HandSolder" V 2630 3950 50  0001 C CNN
F 3 "~" H 2700 3950 50  0001 C CNN
	1    2700 3950
	0    1    1    0   
$EndComp
Wire Wire Line
	2550 4300 2550 3950
Connection ~ 2550 4300
Wire Wire Line
	2250 4400 2250 3950
Wire Wire Line
	1650 4500 1650 4300
Wire Wire Line
	1650 3950 1950 3950
Connection ~ 1650 4500
Connection ~ 1650 4300
Wire Wire Line
	1650 4300 1650 3950
Wire Wire Line
	3150 4400 3150 3950
Wire Wire Line
	3150 3950 2850 3950
$Comp
L Device:C C9
U 1 1 5FE90ADC
P 2400 3650
F 0 "C9" V 2148 3650 50  0000 C CNN
F 1 "100p" V 2239 3650 50  0000 C CNN
F 2 "Capacitor_SMD:C_0805_2012Metric_Pad1.18x1.45mm_HandSolder" H 2438 3500 50  0001 C CNN
F 3 "~" H 2400 3650 50  0001 C CNN
	1    2400 3650
	0    1    1    0   
$EndComp
Wire Wire Line
	1650 3650 1650 3950
Connection ~ 1650 3950
Wire Wire Line
	1650 3650 2250 3650
Wire Wire Line
	2550 3650 3150 3650
Wire Wire Line
	3150 3650 3150 3950
Connection ~ 3150 3950
$Comp
L 74xx:74LS132 U2
U 3 1 5FE942F0
P 3450 4500
F 0 "U2" H 3450 4825 50  0000 C CNN
F 1 "74LS132" H 3450 4734 50  0000 C CNN
F 2 "Package_SO:SOIC-14_3.9x8.7mm_P1.27mm" H 3450 4500 50  0001 C CNN
F 3 "http://www.ti.com/lit/gpn/sn74LS132" H 3450 4500 50  0001 C CNN
	3    3450 4500
	1    0    0    -1  
$EndComp
$Comp
L Connector_Generic:Conn_01x02 J6
U 1 1 5FE9D0C0
P 3950 4500
F 0 "J6" H 4030 4492 50  0000 L CNN
F 1 "3GE" H 4030 4401 50  0000 L CNN
F 2 "Connector_PinHeader_2.54mm:PinHeader_1x02_P2.54mm_Vertical" H 3950 4500 50  0001 C CNN
F 3 "~" H 3950 4500 50  0001 C CNN
	1    3950 4500
	1    0    0    -1  
$EndComp
$Comp
L power:GND #PWR0115
U 1 1 5FE9E263
P 3750 4600
F 0 "#PWR0115" H 3750 4350 50  0001 C CNN
F 1 "GND" H 3755 4427 50  0000 C CNN
F 2 "" H 3750 4600 50  0001 C CNN
F 3 "" H 3750 4600 50  0001 C CNN
	1    3750 4600
	1    0    0    -1  
$EndComp
Connection ~ 3150 4400
$Comp
L power:GND #PWR0116
U 1 1 5FEA3420
P 4650 4600
F 0 "#PWR0116" H 4650 4350 50  0001 C CNN
F 1 "GND" H 4655 4427 50  0000 C CNN
F 2 "" H 4650 4600 50  0001 C CNN
F 3 "" H 4650 4600 50  0001 C CNN
	1    4650 4600
	1    0    0    -1  
$EndComp
$Comp
L power:VCC #PWR0117
U 1 1 5FEA774C
P 4650 4200
F 0 "#PWR0117" H 4650 4050 50  0001 C CNN
F 1 "VCC" H 4665 4373 50  0000 C CNN
F 2 "" H 4650 4200 50  0001 C CNN
F 3 "" H 4650 4200 50  0001 C CNN
	1    4650 4200
	1    0    0    -1  
$EndComp
$Comp
L 74xx:74LS132 U2
U 5 1 5FEA8AA4
P 3550 6500
F 0 "U2" H 3780 6546 50  0000 L CNN
F 1 "74LS132" H 3780 6455 50  0000 L CNN
F 2 "Package_SO:SOIC-14_3.9x8.7mm_P1.27mm" H 3550 6500 50  0001 C CNN
F 3 "http://www.ti.com/lit/gpn/sn74LS132" H 3550 6500 50  0001 C CNN
	5    3550 6500
	1    0    0    -1  
$EndComp
$Comp
L Device:C C11
U 1 1 5FEAA0A4
P 3050 6500
F 0 "C11" H 3165 6546 50  0000 L CNN
F 1 "100n" H 3165 6455 50  0000 L CNN
F 2 "Capacitor_SMD:C_0805_2012Metric_Pad1.18x1.45mm_HandSolder" H 3088 6350 50  0001 C CNN
F 3 "~" H 3050 6500 50  0001 C CNN
	1    3050 6500
	1    0    0    -1  
$EndComp
Wire Wire Line
	2400 7000 3050 7000
Connection ~ 2400 7000
Wire Wire Line
	3050 6650 3050 7000
Connection ~ 3050 7000
Wire Wire Line
	3050 7000 3550 7000
Wire Wire Line
	2400 6000 3050 6000
Wire Wire Line
	3050 6000 3050 6350
Connection ~ 2400 6000
Wire Wire Line
	3050 6000 3550 6000
Connection ~ 3050 6000
$Comp
L Device:Crystal Y4
U 1 1 5FB80BC4
P 5750 4500
F 0 "Y4" H 5750 4768 50  0000 C CNN
F 1 "14.32MHz" H 5750 4677 50  0000 C CNN
F 2 "Crystal:Crystal_SMD_HC49-SD" H 5750 4500 50  0001 C CNN
F 3 "~" H 5750 4500 50  0001 C CNN
	1    5750 4500
	1    0    0    -1  
$EndComp
$Comp
L Device:C C13
U 1 1 5FB80BE2
P 5450 4800
F 0 "C13" H 5335 4754 50  0000 R CNN
F 1 "22p" H 5335 4845 50  0000 R CNN
F 2 "Capacitor_SMD:C_0805_2012Metric_Pad1.18x1.45mm_HandSolder" H 5488 4650 50  0001 C CNN
F 3 "~" H 5450 4800 50  0001 C CNN
	1    5450 4800
	-1   0    0    1   
$EndComp
$Comp
L Device:C C14
U 1 1 5FB80BEC
P 6050 4800
F 0 "C14" H 5935 4754 50  0000 R CNN
F 1 "22p" H 5935 4845 50  0000 R CNN
F 2 "Capacitor_SMD:C_0805_2012Metric_Pad1.18x1.45mm_HandSolder" H 6088 4650 50  0001 C CNN
F 3 "~" H 6050 4800 50  0001 C CNN
	1    6050 4800
	-1   0    0    1   
$EndComp
$Comp
L power:GND #PWR0118
U 1 1 5FB80BF6
P 5450 4950
F 0 "#PWR0118" H 5450 4700 50  0001 C CNN
F 1 "GND" H 5455 4777 50  0000 C CNN
F 2 "" H 5450 4950 50  0001 C CNN
F 3 "" H 5450 4950 50  0001 C CNN
	1    5450 4950
	1    0    0    -1  
$EndComp
$Comp
L power:GND #PWR0119
U 1 1 5FB80C00
P 6050 4950
F 0 "#PWR0119" H 6050 4700 50  0001 C CNN
F 1 "GND" H 6055 4777 50  0000 C CNN
F 2 "" H 6050 4950 50  0001 C CNN
F 3 "" H 6050 4950 50  0001 C CNN
	1    6050 4950
	1    0    0    -1  
$EndComp
$Comp
L Connector_Generic:Conn_01x02 J7
U 1 1 5FB80C14
P 7150 4600
F 0 "J7" H 7230 4592 50  0000 L CNN
F 1 "2GE" H 7230 4501 50  0000 L CNN
F 2 "Connector_PinHeader_2.54mm:PinHeader_1x02_P2.54mm_Vertical" H 7150 4600 50  0001 C CNN
F 3 "~" H 7150 4600 50  0001 C CNN
	1    7150 4600
	1    0    0    -1  
$EndComp
$Comp
L power:GND #PWR0120
U 1 1 5FB80C1E
P 6950 4700
F 0 "#PWR0120" H 6950 4450 50  0001 C CNN
F 1 "GND" H 6955 4527 50  0000 C CNN
F 2 "" H 6950 4700 50  0001 C CNN
F 3 "" H 6950 4700 50  0001 C CNN
	1    6950 4700
	1    0    0    -1  
$EndComp
Wire Wire Line
	5900 4500 6050 4500
Wire Wire Line
	6050 4500 6050 4650
Connection ~ 6050 4500
Wire Wire Line
	5450 4650 5450 4500
Wire Wire Line
	5600 4500 5450 4500
Connection ~ 5450 4500
$Comp
L Device:R R12
U 1 1 5FB80C39
P 6050 4200
F 0 "R12" H 5980 4154 50  0000 R CNN
F 1 "1k" H 5980 4245 50  0000 R CNN
F 2 "Resistor_SMD:R_0805_2012Metric_Pad1.20x1.40mm_HandSolder" V 5980 4200 50  0001 C CNN
F 3 "~" H 6050 4200 50  0001 C CNN
	1    6050 4200
	-1   0    0    1   
$EndComp
Wire Wire Line
	6050 4350 6050 4500
$Comp
L Device:R R11
U 1 1 5FB80C44
P 5750 3600
F 0 "R11" V 5957 3600 50  0000 C CNN
F 1 "1k" V 5866 3600 50  0000 C CNN
F 2 "Resistor_SMD:R_0805_2012Metric_Pad1.20x1.40mm_HandSolder" V 5680 3600 50  0001 C CNN
F 3 "~" H 5750 3600 50  0001 C CNN
	1    5750 3600
	0    -1   -1   0   
$EndComp
Wire Wire Line
	5600 3600 5450 3600
Wire Wire Line
	5900 3600 6050 3600
Wire Wire Line
	6050 3600 6050 4050
Wire Wire Line
	5450 3600 5450 3950
$Comp
L 74xx:74LS132 U3
U 2 1 5FBA9F2A
P 6650 4600
F 0 "U3" H 6650 4925 50  0000 C CNN
F 1 "74LS132" H 6650 4834 50  0000 C CNN
F 2 "Package_SO:SOIC-14_3.9x8.7mm_P1.27mm" H 6650 4600 50  0001 C CNN
F 3 "http://www.ti.com/lit/gpn/sn74LS132" H 6650 4600 50  0001 C CNN
	2    6650 4600
	1    0    0    -1  
$EndComp
Wire Wire Line
	5450 4150 5450 4500
Connection ~ 6050 4050
$Comp
L 74xx:74LS132 U3
U 1 1 5FBAEB25
P 5750 4050
F 0 "U3" H 5750 4375 50  0000 C CNN
F 1 "74LS132" H 5750 4284 50  0000 C CNN
F 2 "Package_SO:SOIC-14_3.9x8.7mm_P1.27mm" H 5750 4050 50  0001 C CNN
F 3 "http://www.ti.com/lit/gpn/sn74LS132" H 5750 4050 50  0001 C CNN
	1    5750 4050
	1    0    0    -1  
$EndComp
$Comp
L Connector_Generic:Conn_01x02 J5
U 1 1 5FE9A670
P 4850 4500
F 0 "J5" H 4930 4492 50  0000 L CNN
F 1 "EN" H 4930 4401 50  0000 L CNN
F 2 "Connector_PinHeader_2.54mm:PinHeader_1x02_P2.54mm_Vertical" H 4850 4500 50  0001 C CNN
F 3 "~" H 4850 4500 50  0001 C CNN
	1    4850 4500
	1    0    0    -1  
$EndComp
$Comp
L Device:R R10
U 1 1 5FEA363F
P 4650 4350
F 0 "R10" V 4443 4350 50  0000 C CNN
F 1 "10k" V 4534 4350 50  0000 C CNN
F 2 "Resistor_SMD:R_0805_2012Metric_Pad1.20x1.40mm_HandSolder" V 4580 4350 50  0001 C CNN
F 3 "~" H 4650 4350 50  0001 C CNN
	1    4650 4350
	-1   0    0    1   
$EndComp
Wire Wire Line
	6050 4500 6350 4500
Wire Wire Line
	4650 4500 4450 4500
Wire Wire Line
	4450 4500 4450 5200
Wire Wire Line
	4450 5200 3150 5200
Wire Wire Line
	3150 5200 3150 4600
Connection ~ 4650 4500
Wire Wire Line
	4450 5200 6350 5200
Wire Wire Line
	6350 5200 6350 4700
Connection ~ 4450 5200
$Comp
L 74xx:74LS132 U3
U 5 1 5FBF9CB7
P 4750 6500
F 0 "U3" H 4980 6546 50  0000 L CNN
F 1 "74LS132" H 4980 6455 50  0000 L CNN
F 2 "Package_SO:SOIC-14_3.9x8.7mm_P1.27mm" H 4750 6500 50  0001 C CNN
F 3 "http://www.ti.com/lit/gpn/sn74LS132" H 4750 6500 50  0001 C CNN
	5    4750 6500
	1    0    0    -1  
$EndComp
$Comp
L Device:C C12
U 1 1 5FBFCA36
P 4250 6500
F 0 "C12" H 4365 6546 50  0000 L CNN
F 1 "100n" H 4365 6455 50  0000 L CNN
F 2 "Capacitor_SMD:C_0805_2012Metric_Pad1.18x1.45mm_HandSolder" H 4288 6350 50  0001 C CNN
F 3 "~" H 4250 6500 50  0001 C CNN
	1    4250 6500
	1    0    0    -1  
$EndComp
Wire Wire Line
	3550 6000 4250 6000
Connection ~ 3550 6000
Wire Wire Line
	3550 7000 4250 7000
Connection ~ 3550 7000
Wire Wire Line
	4250 6650 4250 7000
Connection ~ 4250 7000
Wire Wire Line
	4250 7000 4750 7000
Wire Wire Line
	4250 6350 4250 6000
Connection ~ 4250 6000
Wire Wire Line
	4250 6000 4750 6000
$EndSCHEMATC
